<?xml version="1.0" encoding="UTF-8" standalone="no"?>
<!DOCTYPE svg PUBLIC "-//W3C//DTD SVG 1.1//EN"
 "http://www.w3.org/Graphics/SVG/1.1/DTD/svg11.dtd">
<!-- Generated by graphviz version 2.38.0 (20140413.2041)
 -->
<!-- Title: ImportTag Pages: 1 -->
<svg width="67pt" height="84pt"
 viewBox="0.00 0.00 67.00 84.00" xmlns="http://www.w3.org/2000/svg" xmlns:xlink="http://www.w3.org/1999/xlink">
<g id="graph0" class="graph" transform="scale(1 1) rotate(0) translate(4 80)">
<title>ImportTag</title>
<polygon fill="white" stroke="none" points="-4,4 -4,-80 63,-80 63,4 -4,4"/>
<!-- Node1 -->
<g id="node1" class="node"><title>Node1</title>
<polygon fill="#bfbfbf" stroke="black" points="0,-0.5 0,-19.5 59,-19.5 59,-0.5 0,-0.5"/>
<text text-anchor="middle" x="29.5" y="-7.5" font-family="Helvetica,sans-Serif" font-size="10.00">ImportTag</text>
</g>
<!-- Node2 -->
<g id="node2" class="node"><title>Node2</title>
<g id="a_node2"><a xlink:href="../../d6/d5b/a00026.html" target="_top" xlink:title="Tag">
<polygon fill="white" stroke="black" points="13.5,-56.5 13.5,-75.5 45.5,-75.5 45.5,-56.5 13.5,-56.5"/>
<text text-anchor="middle" x="29.5" y="-63.5" font-family="Helvetica,sans-Serif" font-size="10.00">Tag</text>
</a>
</g>
</g>
<!-- Node2&#45;&gt;Node1 -->
<g id="edge1" class="edge"><title>Node2&#45;&gt;Node1</title>
<path fill="none" stroke="midnightblue" d="M29.5,-45.8045C29.5,-36.9102 29.5,-26.7798 29.5,-19.7511"/>
<polygon fill="midnightblue" stroke="midnightblue" points="26.0001,-46.083 29.5,-56.083 33.0001,-46.083 26.0001,-46.083"/>
</g>
</g>
</svg>
