<?xml version="1.0" encoding="UTF-8" standalone="no"?>
<!DOCTYPE svg PUBLIC "-//W3C//DTD SVG 1.1//EN"
 "http://www.w3.org/Graphics/SVG/1.1/DTD/svg11.dtd">
<!-- Generated by graphviz version 2.38.0 (20140413.2041)
 -->
<!-- Title: Tag Pages: 1 -->
<!--zoomable 826 -->
<svg id="main" version="1.1" xmlns="http://www.w3.org/2000/svg" xmlns:xlink="http://www.w3.org/1999/xlink" xml:space="preserve" onload="init(evt)">
<style type="text/css"><![CDATA[
.edge:hover path { stroke: red; }
.edge:hover polygon { stroke: red; fill: red; }
]]></style>
<script type="text/javascript"><![CDATA[
var edges = document.getElementsByTagName('g');
if (edges && edges.length) {
  for (var i=0;i<edges.length;i++) {
    if (edges[i].id.substr(0,4)=='edge') {
      edges[i].setAttribute('class','edge');
    }
  }
}
]]></script>
        <defs>
                <circle id="rim" cx="0" cy="0" r="7"/>
                <circle id="rim2" cx="0" cy="0" r="3.5"/>
                <g id="zoomPlus">
                        <use xlink:href="#rim" fill="#404040">
                                <set attributeName="fill" to="#808080" begin="zoomplus.mouseover" end="zoomplus.mouseout"/>
                        </use>
                        <path d="M-4,0h8M0,-4v8" fill="none" stroke="white" stroke-width="1.5" pointer-events="none"/>
                </g>
                <g id="zoomMin">
                        <use xlink:href="#rim" fill="#404040">
                                <set attributeName="fill" to="#808080" begin="zoomminus.mouseover" end="zoomminus.mouseout"/>
                        </use>
                        <path d="M-4,0h8" fill="none" stroke="white" stroke-width="1.5" pointer-events="none"/>
                </g>
                <g id="dirArrow">
                        <path fill="none" stroke="white" stroke-width="1.5" d="M0,-3.0v7 M-2.5,-0.5L0,-3.0L2.5,-0.5"/>
                </g>
               <g id="resetDef">
                       <use xlink:href="#rim2" fill="#404040">
                               <set attributeName="fill" to="#808080" begin="reset.mouseover" end="reset.mouseout"/>
                       </use>
               </g>
        </defs>

<script type="text/javascript">
var viewWidth = 145;
var viewHeight = 826;
var sectionId = 'dynsection-0';
</script>
<script xlink:href="../../svgpan.js"/>
<svg id="graph" class="graph">
<g id="viewport">
<title>Tag</title>
<polygon fill="white" stroke="none" points="-4,4 -4,-822 141,-822 141,4 -4,4"/>
<!-- Node1 -->
<g id="node1" class="node"><title>Node1</title>
<polygon fill="#bfbfbf" stroke="black" points="0,-399.5 0,-418.5 32,-418.5 32,-399.5 0,-399.5"/>
<text text-anchor="middle" x="16" y="-406.5" font-family="Helvetica,sans-Serif" font-size="10.00">Tag</text>
</g>
<!-- Node2 -->
<g id="node2" class="node"><title>Node2</title>
<g id="a_node2"><a xlink:href="../../d8/d84/a00001.html" target="_top" xlink:title="CaseTag">
<polygon fill="white" stroke="black" points="75,-798.5 75,-817.5 130,-817.5 130,-798.5 75,-798.5"/>
<text text-anchor="middle" x="102.5" y="-805.5" font-family="Helvetica,sans-Serif" font-size="10.00">CaseTag</text>
</a>
</g>
</g>
<!-- Node1&#45;&gt;Node2 -->
<g id="edge1" class="edge"><title>Node1&#45;&gt;Node2</title>
<path fill="none" stroke="midnightblue" d="M17.3875,-429.107C19.0784,-498.843 27.668,-729.299 68,-789 70.5452,-792.768 74.1019,-795.874 77.9532,-798.405"/>
<polygon fill="midnightblue" stroke="midnightblue" points="20.8773,-428.603 17.1585,-418.682 13.879,-428.756 20.8773,-428.603"/>
</g>
<!-- Node3 -->
<g id="node3" class="node"><title>Node3</title>
<g id="a_node3"><a xlink:href="../../d7/d46/a00002.html" target="_top" xlink:title="CatchTag">
<polygon fill="white" stroke="black" points="73.5,-760.5 73.5,-779.5 131.5,-779.5 131.5,-760.5 73.5,-760.5"/>
<text text-anchor="middle" x="102.5" y="-767.5" font-family="Helvetica,sans-Serif" font-size="10.00">CatchTag</text>
</a>
</g>
</g>
<!-- Node1&#45;&gt;Node3 -->
<g id="edge2" class="edge"><title>Node1&#45;&gt;Node3</title>
<path fill="none" stroke="midnightblue" d="M17.7098,-428.76C20.3714,-493.466 31.5497,-697.886 68,-751 70.5727,-754.749 74.1423,-757.847 77.9977,-760.375"/>
<polygon fill="midnightblue" stroke="midnightblue" points="21.2038,-428.536 17.3189,-418.679 14.2091,-428.807 21.2038,-428.536"/>
</g>
<!-- Node4 -->
<g id="node4" class="node"><title>Node4</title>
<g id="a_node4"><a xlink:href="../../dd/dad/a00005.html" target="_top" xlink:title="CustomTag">
<polygon fill="white" stroke="black" points="69.5,-722.5 69.5,-741.5 135.5,-741.5 135.5,-722.5 69.5,-722.5"/>
<text text-anchor="middle" x="102.5" y="-729.5" font-family="Helvetica,sans-Serif" font-size="10.00">CustomTag</text>
</a>
</g>
</g>
<!-- Node1&#45;&gt;Node4 -->
<g id="edge3" class="edge"><title>Node1&#45;&gt;Node4</title>
<path fill="none" stroke="midnightblue" d="M18.1263,-428.841C21.8613,-488.753 35.4973,-666.55 68,-713 70.6067,-716.725 74.1922,-719.812 78.0526,-722.337"/>
<polygon fill="midnightblue" stroke="midnightblue" points="21.599,-428.278 17.5086,-418.505 14.6114,-428.696 21.599,-428.278"/>
</g>
<!-- Node5 -->
<g id="node5" class="node"><title>Node5</title>
<g id="a_node5"><a xlink:href="../../de/d21/a00006.html" target="_top" xlink:title="DeclareTag">
<polygon fill="white" stroke="black" points="70,-684.5 70,-703.5 135,-703.5 135,-684.5 70,-684.5"/>
<text text-anchor="middle" x="102.5" y="-691.5" font-family="Helvetica,sans-Serif" font-size="10.00">DeclareTag</text>
</a>
</g>
</g>
<!-- Node1&#45;&gt;Node5 -->
<g id="edge4" class="edge"><title>Node1&#45;&gt;Node5</title>
<path fill="none" stroke="midnightblue" d="M18.6541,-428.836C23.5444,-483.541 39.4102,-635.135 68,-675 70.6497,-678.695 74.2554,-681.767 78.1223,-684.287"/>
<polygon fill="midnightblue" stroke="midnightblue" points="22.1268,-428.369 17.7765,-418.708 15.153,-428.973 22.1268,-428.369"/>
</g>
<!-- Node6 -->
<g id="node6" class="node"><title>Node6</title>
<g id="a_node6"><a xlink:href="../../de/d5e/a00007.html" target="_top" xlink:title="DefaultTag">
<polygon fill="white" stroke="black" points="71.5,-646.5 71.5,-665.5 133.5,-665.5 133.5,-646.5 71.5,-646.5"/>
<text text-anchor="middle" x="102.5" y="-653.5" font-family="Helvetica,sans-Serif" font-size="10.00">DefaultTag</text>
</a>
</g>
</g>
<!-- Node1&#45;&gt;Node6 -->
<g id="edge5" class="edge"><title>Node1&#45;&gt;Node6</title>
<path fill="none" stroke="midnightblue" d="M16.3058,-428.959C15.8391,-471.508 20.2355,-572.507 68,-637 70.7856,-640.761 74.5525,-643.886 78.5559,-646.441"/>
<polygon fill="midnightblue" stroke="midnightblue" points="19.8083,-428.877 16.5271,-418.803 12.81,-428.724 19.8083,-428.877"/>
</g>
<!-- Node7 -->
<g id="node7" class="node"><title>Node7</title>
<g id="a_node7"><a xlink:href="../../d4/dee/a00008.html" target="_top" xlink:title="ElseIfTag">
<polygon fill="white" stroke="black" points="74.5,-608.5 74.5,-627.5 130.5,-627.5 130.5,-608.5 74.5,-608.5"/>
<text text-anchor="middle" x="102.5" y="-615.5" font-family="Helvetica,sans-Serif" font-size="10.00">ElseIfTag</text>
</a>
</g>
</g>
<!-- Node1&#45;&gt;Node7 -->
<g id="edge6" class="edge"><title>Node1&#45;&gt;Node7</title>
<path fill="none" stroke="midnightblue" d="M17.4408,-428.891C19.2361,-466.089 27.8435,-547.104 68,-599 70.8643,-602.702 74.6669,-605.8 78.6805,-608.347"/>
<polygon fill="midnightblue" stroke="midnightblue" points="20.9363,-428.7 17.0749,-418.834 13.9409,-428.955 20.9363,-428.7"/>
</g>
<!-- Node8 -->
<g id="node8" class="node"><title>Node8</title>
<g id="a_node8"><a xlink:href="../../da/da0/a00009.html" target="_top" xlink:title="ElseTag">
<polygon fill="white" stroke="black" points="76.5,-570.5 76.5,-589.5 128.5,-589.5 128.5,-570.5 76.5,-570.5"/>
<text text-anchor="middle" x="102.5" y="-577.5" font-family="Helvetica,sans-Serif" font-size="10.00">ElseTag</text>
</a>
</g>
</g>
<!-- Node1&#45;&gt;Node8 -->
<g id="edge7" class="edge"><title>Node1&#45;&gt;Node8</title>
<path fill="none" stroke="midnightblue" d="M19.0789,-428.745C23.2838,-460.006 35.3634,-521.4 68,-561 71.0618,-564.715 75.0512,-567.843 79.2043,-570.421"/>
<polygon fill="midnightblue" stroke="midnightblue" points="22.538,-428.195 17.8625,-418.687 15.5886,-429.035 22.538,-428.195"/>
</g>
<!-- Node9 -->
<g id="node9" class="node"><title>Node9</title>
<g id="a_node9"><a xlink:href="../../d7/dec/a00010.html" target="_top" xlink:title="ExecTag">
<polygon fill="white" stroke="black" points="75,-532.5 75,-551.5 130,-551.5 130,-532.5 75,-532.5"/>
<text text-anchor="middle" x="102.5" y="-539.5" font-family="Helvetica,sans-Serif" font-size="10.00">ExecTag</text>
</a>
</g>
</g>
<!-- Node1&#45;&gt;Node9 -->
<g id="edge8" class="edge"><title>Node1&#45;&gt;Node9</title>
<path fill="none" stroke="midnightblue" d="M21.7003,-428.61C28.4206,-453.15 42.8322,-495.313 68,-523 71.3281,-526.661 75.5313,-529.793 79.8256,-532.397"/>
<polygon fill="midnightblue" stroke="midnightblue" points="25.0285,-427.499 19.1428,-418.69 18.2502,-429.247 25.0285,-427.499"/>
</g>
<!-- Node10 -->
<g id="node10" class="node"><title>Node10</title>
<g id="a_node10"><a xlink:href="../../df/d86/a00012.html" target="_top" xlink:title="ForEachTag">
<polygon fill="white" stroke="black" points="68,-494.5 68,-513.5 137,-513.5 137,-494.5 68,-494.5"/>
<text text-anchor="middle" x="102.5" y="-501.5" font-family="Helvetica,sans-Serif" font-size="10.00">ForEachTag</text>
</a>
</g>
</g>
<!-- Node1&#45;&gt;Node10 -->
<g id="edge9" class="edge"><title>Node1&#45;&gt;Node10</title>
<path fill="none" stroke="midnightblue" d="M26.5784,-428.183C35.5607,-444.744 50.2486,-468.534 68,-485 71.8236,-488.547 76.4272,-491.696 80.9804,-494.361"/>
<polygon fill="midnightblue" stroke="midnightblue" points="29.4796,-426.177 21.7465,-418.935 23.2754,-429.419 29.4796,-426.177"/>
</g>
<!-- Node11 -->
<g id="node11" class="node"><title>Node11</title>
<g id="a_node11"><a xlink:href="../../d7/dd4/a00013.html" target="_top" xlink:title="ForLoopTag">
<polygon fill="white" stroke="black" points="68.5,-456.5 68.5,-475.5 136.5,-475.5 136.5,-456.5 68.5,-456.5"/>
<text text-anchor="middle" x="102.5" y="-463.5" font-family="Helvetica,sans-Serif" font-size="10.00">ForLoopTag</text>
</a>
</g>
</g>
<!-- Node1&#45;&gt;Node11 -->
<g id="edge10" class="edge"><title>Node1&#45;&gt;Node11</title>
<path fill="none" stroke="midnightblue" d="M37.3871,-425.1C46.5559,-432.101 57.6287,-440.233 68,-447 72.9277,-450.215 78.4261,-453.465 83.5205,-456.346"/>
<polygon fill="midnightblue" stroke="midnightblue" points="39.3154,-422.167 29.2647,-418.815 35.0317,-427.703 39.3154,-422.167"/>
</g>
<!-- Node12 -->
<g id="node12" class="node"><title>Node12</title>
<g id="a_node12"><a xlink:href="../../d2/de7/a00014.html" target="_top" xlink:title="IfTag">
<polygon fill="white" stroke="black" points="84,-418.5 84,-437.5 121,-437.5 121,-418.5 84,-418.5"/>
<text text-anchor="middle" x="102.5" y="-425.5" font-family="Helvetica,sans-Serif" font-size="10.00">IfTag</text>
</a>
</g>
</g>
<!-- Node1&#45;&gt;Node12 -->
<g id="edge11" class="edge"><title>Node1&#45;&gt;Node12</title>
<path fill="none" stroke="midnightblue" d="M42.1582,-414.657C55.5977,-417.679 71.8123,-421.325 83.8937,-424.041"/>
<polygon fill="midnightblue" stroke="midnightblue" points="42.6312,-411.176 32.1069,-412.397 41.0955,-418.005 42.6312,-411.176"/>
</g>
<!-- Node13 -->
<g id="node13" class="node"><title>Node13</title>
<g id="a_node13"><a xlink:href="../../dd/d1b/a00015.html" target="_top" xlink:title="ImportTag">
<polygon fill="white" stroke="black" points="73,-380.5 73,-399.5 132,-399.5 132,-380.5 73,-380.5"/>
<text text-anchor="middle" x="102.5" y="-387.5" font-family="Helvetica,sans-Serif" font-size="10.00">ImportTag</text>
</a>
</g>
</g>
<!-- Node1&#45;&gt;Node13 -->
<g id="edge12" class="edge"><title>Node1&#45;&gt;Node13</title>
<path fill="none" stroke="midnightblue" d="M41.9366,-403.393C51.6429,-401.21 62.8232,-398.697 72.8572,-396.44"/>
<polygon fill="midnightblue" stroke="midnightblue" points="41.0955,-399.995 32.1069,-405.603 42.6312,-406.824 41.0955,-399.995"/>
</g>
<!-- Node14 -->
<g id="node14" class="node"><title>Node14</title>
<g id="a_node14"><a xlink:href="../../d7/d7a/a00016.html" target="_top" xlink:title="IncludeTag">
<polygon fill="white" stroke="black" points="71,-342.5 71,-361.5 134,-361.5 134,-342.5 71,-342.5"/>
<text text-anchor="middle" x="102.5" y="-349.5" font-family="Helvetica,sans-Serif" font-size="10.00">IncludeTag</text>
</a>
</g>
</g>
<!-- Node1&#45;&gt;Node14 -->
<g id="edge13" class="edge"><title>Node1&#45;&gt;Node14</title>
<path fill="none" stroke="midnightblue" d="M37.3871,-392.9C46.5559,-385.899 57.6287,-377.767 68,-371 72.9277,-367.785 78.4261,-364.535 83.5205,-361.654"/>
<polygon fill="midnightblue" stroke="midnightblue" points="35.0317,-390.297 29.2647,-399.185 39.3154,-395.833 35.0317,-390.297"/>
</g>
<!-- Node15 -->
<g id="node15" class="node"><title>Node15</title>
<g id="a_node15"><a xlink:href="../../d4/d51/a00017.html" target="_top" xlink:title="ModelTag">
<polygon fill="white" stroke="black" points="73,-304.5 73,-323.5 132,-323.5 132,-304.5 73,-304.5"/>
<text text-anchor="middle" x="102.5" y="-311.5" font-family="Helvetica,sans-Serif" font-size="10.00">ModelTag</text>
</a>
</g>
</g>
<!-- Node1&#45;&gt;Node15 -->
<g id="edge14" class="edge"><title>Node1&#45;&gt;Node15</title>
<path fill="none" stroke="midnightblue" d="M26.5784,-389.817C35.5607,-373.256 50.2486,-349.466 68,-333 71.8236,-329.453 76.4272,-326.304 80.9804,-323.639"/>
<polygon fill="midnightblue" stroke="midnightblue" points="23.2754,-388.581 21.7465,-399.065 29.4796,-391.823 23.2754,-388.581"/>
</g>
<!-- Node16 -->
<g id="node16" class="node"><title>Node16</title>
<g id="a_node16"><a xlink:href="../../d1/d2b/a00018.html" target="_top" xlink:title="OutTag">
<polygon fill="white" stroke="black" points="78.5,-266.5 78.5,-285.5 126.5,-285.5 126.5,-266.5 78.5,-266.5"/>
<text text-anchor="middle" x="102.5" y="-273.5" font-family="Helvetica,sans-Serif" font-size="10.00">OutTag</text>
</a>
</g>
</g>
<!-- Node1&#45;&gt;Node16 -->
<g id="edge15" class="edge"><title>Node1&#45;&gt;Node16</title>
<path fill="none" stroke="midnightblue" d="M21.7003,-389.39C28.4206,-364.85 42.8322,-322.687 68,-295 71.3281,-291.339 75.5313,-288.207 79.8256,-285.603"/>
<polygon fill="midnightblue" stroke="midnightblue" points="18.2502,-388.753 19.1428,-399.31 25.0285,-390.501 18.2502,-388.753"/>
</g>
<!-- Node17 -->
<g id="node17" class="node"><title>Node17</title>
<g id="a_node17"><a xlink:href="../../d3/d52/a00023.html" target="_top" xlink:title="PutTag">
<polygon fill="white" stroke="black" points="79,-228.5 79,-247.5 126,-247.5 126,-228.5 79,-228.5"/>
<text text-anchor="middle" x="102.5" y="-235.5" font-family="Helvetica,sans-Serif" font-size="10.00">PutTag</text>
</a>
</g>
</g>
<!-- Node1&#45;&gt;Node17 -->
<g id="edge16" class="edge"><title>Node1&#45;&gt;Node17</title>
<path fill="none" stroke="midnightblue" d="M19.0789,-389.255C23.2838,-357.994 35.3634,-296.6 68,-257 71.0618,-253.285 75.0512,-250.157 79.2043,-247.579"/>
<polygon fill="midnightblue" stroke="midnightblue" points="15.5886,-388.965 17.8625,-399.313 22.538,-389.805 15.5886,-388.965"/>
</g>
<!-- Node18 -->
<g id="node18" class="node"><title>Node18</title>
<g id="a_node18"><a xlink:href="../../dc/de2/a00024.html" target="_top" xlink:title="SetTag">
<polygon fill="white" stroke="black" points="79,-190.5 79,-209.5 126,-209.5 126,-190.5 79,-190.5"/>
<text text-anchor="middle" x="102.5" y="-197.5" font-family="Helvetica,sans-Serif" font-size="10.00">SetTag</text>
</a>
</g>
</g>
<!-- Node1&#45;&gt;Node18 -->
<g id="edge17" class="edge"><title>Node1&#45;&gt;Node18</title>
<path fill="none" stroke="midnightblue" d="M17.4408,-389.109C19.2361,-351.911 27.8435,-270.896 68,-219 70.8643,-215.298 74.6669,-212.2 78.6805,-209.653"/>
<polygon fill="midnightblue" stroke="midnightblue" points="13.9409,-389.045 17.0749,-399.166 20.9363,-389.3 13.9409,-389.045"/>
</g>
<!-- Node19 -->
<g id="node19" class="node"><title>Node19</title>
<g id="a_node19"><a xlink:href="../../d3/dfe/a00025.html" target="_top" xlink:title="SwitchTag">
<polygon fill="white" stroke="black" points="71.5,-152.5 71.5,-171.5 133.5,-171.5 133.5,-152.5 71.5,-152.5"/>
<text text-anchor="middle" x="102.5" y="-159.5" font-family="Helvetica,sans-Serif" font-size="10.00">SwitchTag</text>
</a>
</g>
</g>
<!-- Node1&#45;&gt;Node19 -->
<g id="edge18" class="edge"><title>Node1&#45;&gt;Node19</title>
<path fill="none" stroke="midnightblue" d="M16.3058,-389.041C15.8391,-346.492 20.2355,-245.493 68,-181 70.7856,-177.239 74.5525,-174.114 78.5559,-171.559"/>
<polygon fill="midnightblue" stroke="midnightblue" points="12.81,-389.276 16.5271,-399.197 19.8083,-389.123 12.81,-389.276"/>
</g>
<!-- Node20 -->
<g id="node20" class="node"><title>Node20</title>
<g id="a_node20"><a xlink:href="../../d0/d33/a00027.html" target="_top" xlink:title="TilesTag">
<polygon fill="white" stroke="black" points="76,-114.5 76,-133.5 129,-133.5 129,-114.5 76,-114.5"/>
<text text-anchor="middle" x="102.5" y="-121.5" font-family="Helvetica,sans-Serif" font-size="10.00">TilesTag</text>
</a>
</g>
</g>
<!-- Node1&#45;&gt;Node20 -->
<g id="edge19" class="edge"><title>Node1&#45;&gt;Node20</title>
<path fill="none" stroke="midnightblue" d="M18.6541,-389.164C23.5444,-334.459 39.4102,-182.865 68,-143 70.6497,-139.305 74.2554,-136.233 78.1223,-133.713"/>
<polygon fill="midnightblue" stroke="midnightblue" points="15.153,-389.027 17.7765,-399.292 22.1268,-389.631 15.153,-389.027"/>
</g>
<!-- Node21 -->
<g id="node21" class="node"><title>Node21</title>
<g id="a_node21"><a xlink:href="../../dc/d3c/a00028.html" target="_top" xlink:title="TileTag">
<polygon fill="white" stroke="black" points="79,-76.5 79,-95.5 126,-95.5 126,-76.5 79,-76.5"/>
<text text-anchor="middle" x="102.5" y="-83.5" font-family="Helvetica,sans-Serif" font-size="10.00">TileTag</text>
</a>
</g>
</g>
<!-- Node1&#45;&gt;Node21 -->
<g id="edge20" class="edge"><title>Node1&#45;&gt;Node21</title>
<path fill="none" stroke="midnightblue" d="M18.1263,-389.159C21.8613,-329.247 35.4973,-151.45 68,-105 70.76,-101.056 74.6174,-97.827 78.7366,-95.2236"/>
<polygon fill="midnightblue" stroke="midnightblue" points="14.6114,-389.304 17.5086,-399.495 21.599,-389.722 14.6114,-389.304"/>
</g>
<!-- Node22 -->
<g id="node22" class="node"><title>Node22</title>
<g id="a_node22"><a xlink:href="../../d5/d16/a00029.html" target="_top" xlink:title="TryTag">
<polygon fill="white" stroke="black" points="79.5,-38.5 79.5,-57.5 125.5,-57.5 125.5,-38.5 79.5,-38.5"/>
<text text-anchor="middle" x="102.5" y="-45.5" font-family="Helvetica,sans-Serif" font-size="10.00">TryTag</text>
</a>
</g>
</g>
<!-- Node1&#45;&gt;Node22 -->
<g id="edge21" class="edge"><title>Node1&#45;&gt;Node22</title>
<path fill="none" stroke="midnightblue" d="M17.7098,-389.24C20.3714,-324.534 31.5497,-120.114 68,-67 70.8754,-62.8102 74.996,-59.4335 79.3691,-56.7564"/>
<polygon fill="midnightblue" stroke="midnightblue" points="14.2091,-389.193 17.3189,-399.321 21.2038,-389.464 14.2091,-389.193"/>
</g>
<!-- Node23 -->
<g id="node23" class="node"><title>Node23</title>
<g id="a_node23"><a xlink:href="../../df/d61/a00031.html" target="_top" xlink:title="WhileTag">
<polygon fill="white" stroke="black" points="74,-0.5 74,-19.5 131,-19.5 131,-0.5 74,-0.5"/>
<text text-anchor="middle" x="102.5" y="-7.5" font-family="Helvetica,sans-Serif" font-size="10.00">WhileTag</text>
</a>
</g>
</g>
<!-- Node1&#45;&gt;Node23 -->
<g id="edge22" class="edge"><title>Node1&#45;&gt;Node23</title>
<path fill="none" stroke="midnightblue" d="M17.3875,-388.893C19.0784,-319.157 27.668,-88.7006 68,-29 70.5452,-25.2325 74.1019,-22.1259 77.9532,-19.5949"/>
<polygon fill="midnightblue" stroke="midnightblue" points="13.879,-389.244 17.1585,-399.318 20.8773,-389.397 13.879,-389.244"/>
</g>
</g>
</svg>
        <g id="navigator" transform="translate(0 0)" fill="#404254">
                <rect fill="#f2f5e9" fill-opacity="0.5" stroke="#606060" stroke-width=".5" x="0" y="0" width="60" height="60"/>
                <use id="zoomplus" xlink:href="#zoomPlus" x="17" y="9" onmousedown="handleZoom(evt,'in')"/>
                <use id="zoomminus" xlink:href="#zoomMin" x="42" y="9" onmousedown="handleZoom(evt,'out')"/>
                <use id="reset" xlink:href="#resetDef" x="30" y="36" onmousedown="handleReset()"/>
                <g id="arrowUp" xlink:href="#dirArrow" transform="translate(30 24)" onmousedown="handlePan(0,-1)">
                  <use xlink:href="#rim" fill="#404040">
                        <set attributeName="fill" to="#808080" begin="arrowUp.mouseover" end="arrowUp.mouseout"/>
                  </use>
                  <path fill="none" stroke="white" stroke-width="1.5" d="M0,-3.0v7 M-2.5,-0.5L0,-3.0L2.5,-0.5"/>
                </g>
                <g id="arrowRight" xlink:href="#dirArrow" transform="rotate(90) translate(36 -43)" onmousedown="handlePan(1,0)">
                  <use xlink:href="#rim" fill="#404040">
                        <set attributeName="fill" to="#808080" begin="arrowRight.mouseover" end="arrowRight.mouseout"/>
                  </use>
                  <path fill="none" stroke="white" stroke-width="1.5" d="M0,-3.0v7 M-2.5,-0.5L0,-3.0L2.5,-0.5"/>
                </g>
                <g id="arrowDown" xlink:href="#dirArrow" transform="rotate(180) translate(-30 -48)" onmousedown="handlePan(0,1)">
                  <use xlink:href="#rim" fill="#404040">
                        <set attributeName="fill" to="#808080" begin="arrowDown.mouseover" end="arrowDown.mouseout"/>
                  </use>
                  <path fill="none" stroke="white" stroke-width="1.5" d="M0,-3.0v7 M-2.5,-0.5L0,-3.0L2.5,-0.5"/>
                </g>
                <g id="arrowLeft" xlink:href="#dirArrow" transform="rotate(270) translate(-36 17)" onmousedown="handlePan(-1,0)">
                  <use xlink:href="#rim" fill="#404040">
                        <set attributeName="fill" to="#808080" begin="arrowLeft.mouseover" end="arrowLeft.mouseout"/>
                  </use>
                  <path fill="none" stroke="white" stroke-width="1.5" d="M0,-3.0v7 M-2.5,-0.5L0,-3.0L2.5,-0.5"/>
                </g>
        </g>
        <svg viewBox="0 0 15 15" width="100%" height="30px" preserveAspectRatio="xMaxYMin meet">
         <g id="arrow_out" transform="scale(0.3 0.3)">
          <a xlink:href="a00076_org.svg" target="_base">
           <rect id="button" ry="5" rx="5" y="6" x="6" height="38" width="38"
                fill="#f2f5e9" fill-opacity="0.5" stroke="#606060" stroke-width="1.0"/>
           <path id="arrow"
             d="M 11.500037,31.436501 C 11.940474,20.09759 22.043105,11.32322 32.158766,21.979434 L 37.068811,17.246167 C 37.068811,17.246167 37.088388,32 37.088388,32 L 22.160133,31.978069 C 22.160133,31.978069 26.997745,27.140456 26.997745,27.140456 C 18.528582,18.264221 13.291696,25.230495 11.500037,31.436501 z"
             style="fill:#404040;"/>
          </a>
         </g>
        </svg>
</svg>
